<svg xmlns="http://www.w3.org/2000/svg" width="17.5" height="45.831" viewBox="0 0 17.5 45.831">
  <g id="Group_397" data-name="Group 397" transform="translate(17.525 45.822) rotate(180)">
    <path id="Path_280" data-name="Path 280" d="M16.815,45.822a.9.9,0,0,1-.694-.347L.155,23.261a1.106,1.106,0,0,1,0-1.041L15.6.354A.81.81,0,0,1,16.815.18a.857.857,0,0,1,.174,1.215L1.891,22.741,17.336,44.433a.857.857,0,0,1-.174,1.215C17.162,45.822,16.989,45.822,16.815,45.822Z" transform="translate(0 0)" fill="#707070"/>
  </g>
</svg>
