<svg xmlns="http://www.w3.org/2000/svg" width="22.714" height="22.021" viewBox="0 0 22.714 22.021">
  <g id="Group_392" data-name="Group 392" transform="translate(-1493.706 -37.542)">
    <circle id="Ellipse_10" data-name="Ellipse 10" cx="7.464" cy="7.464" r="7.464" transform="translate(1497.726 38.714) rotate(11)" stroke-width="2" stroke="#707070" stroke-linecap="round" stroke-linejoin="round" stroke-miterlimit="10" fill="none"/>
    <path id="Path_129" data-name="Path 129" d="M6.8,6.146,0,1.756,1.1,0,7.9,4.39A.779.779,0,0,1,8.122,5.6l-.22.329C7.793,6.256,7.244,6.366,6.8,6.146Z" transform="translate(1508.259 51.831) rotate(11)" fill="#707070"/>
  </g>
</svg>
