<?xml version="1.0" standalone="no"?>
<!DOCTYPE svg PUBLIC "-//W3C//DTD SVG 20010904//EN"
 "http://www.w3.org/TR/2001/REC-SVG-20010904/DTD/svg10.dtd">
<svg version="1.0" xmlns="http://www.w3.org/2000/svg"
 width="32.000000pt" height="32.000000pt" viewBox="0 0 32.000000 32.000000"
 preserveAspectRatio="xMidYMid meet">

<g transform="translate(0.000000,32.000000) scale(0.100000,-0.100000)"
fill="#000000" stroke="none">
<path d="M60 286 c0 -19 -5 -38 -11 -41 -6 -4 -8 -14 -5 -22 4 -9 -1 -17 -14
-20 -17 -5 -20 -14 -20 -69 0 -71 9 -80 31 -32 l14 33 99 3 c107 3 121 -2 131
-49 11 -48 25 -22 25 47 0 50 -3 64 -15 64 -8 0 -15 9 -15 19 0 11 -4 23 -10
26 -5 3 -10 22 -10 41 l0 34 -100 0 -100 0 0 -34z m170 -35 c0 -29 5 -41 18
-44 9 -3 -30 -5 -88 -5 -58 0 -97 2 -87 5 12 3 17 15 17 44 l0 39 70 0 70 0 0
-39z"/>
<path d="M51 94 c-6 -14 -8 -31 -4 -37 4 -7 11 -1 18 17 12 27 13 28 94 28 45
0 84 -2 85 -4 2 -1 6 -21 9 -43 4 -22 4 -34 1 -27 -4 8 -34 12 -100 12 -68 0
-94 -3 -94 -12 0 -9 -4 -8 -10 2 -8 13 -10 12 -10 -2 0 -16 12 -18 115 -18
l114 0 0 38 c-2 73 0 72 -108 72 -95 0 -98 -1 -110 -26z"/>
</g>
</svg>
